…
real    0m34.711s
user    0m33.812s
sys     0m1.868s
MLE optimisation for peaks

Attaching package: ‘broom’

The following object is masked from ‘package:modelr’:

    bootstrap

Warning message:
no DISPLAY variable so Tk is not available 
[1] "Removing l=0,2,3 first"
# A tibble: 61 × 6
   frequency linewidth height   snr   AIC amplitude
       <dbl>     <dbl>  <dbl> <dbl> <dbl>     <dbl>
 1      34.0    0.0235   4.25  3.42  6.09     0.560
 2      35.3    0.0152   3.41  2.17  5.24     0.404
 3      36.8   NA        6.95 NA     2.32     0.318
 4      37.1   NA        7.41 NA     3.24     0.328
 5      37.2   NA        8.00 NA     3.63     0.341
 6      38.2   NA        8.53 NA     6.97     0.352
 7      38.8   NA        7.24 NA     2.11     0.324
 8      40.4    0.0131   3.04  1.78  2.50     0.355
 9      41.3    0.0194   5.05  3.71 26.8      0.554
10      41.8   NA        6.86 NA     2.39     0.316
# … with 51 more rows
…
real    0m39.462s
user    0m38.255s
sys     0m2.250s
MLE optimisation for peaks

Attaching package: ‘broom’

The following object is masked from ‘package:modelr’:

    bootstrap

Warning message:
no DISPLAY variable so Tk is not available 
[1] "Removing l=0,2,3 first"
# A tibble: 63 × 6
   frequency linewidth height   snr   AIC amplitude
       <dbl>     <dbl>  <dbl> <dbl> <dbl>     <dbl>
 1      21.5   0.0166    3.97  2.89  3.08     0.455
 2      21.9   0.00764   5.16  2.53  6.41     0.352
 3      23.1  NA         7.96 NA     3.66     0.314
 4      25.0  NA         8.59 NA     6.90     0.326
 5      25.8  NA         7.54 NA     2.37     0.305
 6      28.8   0.00764  11.6   5.94 28.3      0.528
 7      29.5  NA         7.45 NA     3.51     0.303
 8      29.7  NA        12.3  NA    21.5      0.390
 9      30.2  NA         7.45 NA     3.27     0.304
10      32.1  NA         8.30 NA     4.68     0.320
# … with 53 more rows
…
