…
real    0m35.292s
user    0m34.122s
sys     0m2.130s
MLE optimisation for peaks

Attaching package: ‘broom’

The following object is masked from ‘package:modelr’:

    bootstrap

Warning message:
no DISPLAY variable so Tk is not available 
[1] "Removing l=0,2,3 first"
# A tibble: 59 × 6
   frequency linewidth height   snr    AIC amplitude
       <dbl>     <dbl>  <dbl> <dbl>  <dbl>     <dbl>
 1      34.0    0.0235   4.27  3.44   5.42     0.561
 2      36.8   NA        7.10 NA      2.37     0.321
 3      37.1   NA        7.45 NA      2.42     0.329
 4      38.2   NA        8.59 NA      7.20     0.353
 5      38.8   NA        7.44 NA      2.28     0.329
 6      41.3    0.0194   5.13  3.78  27.5      0.559
 7      41.8   NA        6.93 NA      2.59     0.317
 8      43.3   NA        9.45 NA      9.27     0.371
 9      46.7    0.0672   2.49  3.38  18.1      0.724
10      47.3    0.0730   8.62 13.0  244.       1.41 
# … with 49 more rows
…
real    0m35.992s
user    0m34.838s
sys     0m2.135s
MLE optimisation for peaks

Attaching package: ‘broom’

The following object is masked from ‘package:modelr’:

    bootstrap

Warning message:
no DISPLAY variable so Tk is not available 
[1] "Removing l=0,2,3 first"
# A tibble: 53 × 6
   frequency linewidth height   snr    AIC amplitude
       <dbl>     <dbl>  <dbl> <dbl>  <dbl>     <dbl>
 1      25.0  NA         7.30 NA      3.26     0.300
 2      28.8   0.00764   9.39  4.75  14.4      0.475
 3      29.7  NA        11.2  NA     15.8      0.371
 4      30.2  NA         7.18 NA      2.22     0.298
 5      30.6   0.00580   8.64  3.77   4.51     0.397
 6      32.6   0.0130    8.73  5.82  14.4      0.598
 7      32.9   0.0322   10.9  11.7  135.       1.05 
 8      33.2   0.0184   11.9   9.62  64.3      0.828
 9      33.4   0.00580  18.7   8.46  40.9      0.583
10      33.7   0.00580  17.5   7.88  34.0      0.564
# … with 43 more rows
…
