…
real	0m32.971s
user	0m32.323s
sys	0m2.202s
MLE optimisation for peaks

Attaching package: ‘broom’

The following object is masked from ‘package:modelr’:

    bootstrap

Warning message:
no DISPLAY variable so Tk is not available 
[1] "Removing l=0,2,3 first"
# A tibble: 60 x 6
   frequency linewidth height   snr   AIC amplitude
       <dbl>     <dbl>  <dbl> <dbl> <dbl>     <dbl>
 1      34.0    0.0235   4.26  3.43  5.37     0.560
 2      35.3    0.0152   3.43  2.18  5.48     0.405
 3      36.8   NA        7.08 NA     2.37     0.321
 4      37.1   NA        7.45 NA     2.42     0.329
 5      38.2   NA        8.59 NA     7.19     0.353
 6      38.8   NA        7.43 NA     2.28     0.329
 7      41.3    0.0194   5.13  3.78 27.5      0.559
 8      41.8   NA        6.93 NA     2.60     0.317
 9      43.3   NA        9.46 NA     9.29     0.371
10      46.7    0.0672   2.49  3.38 17.7      0.725
# … with 50 more rows
…
real	0m40.270s
user	0m39.425s
sys	0m2.572s
MLE optimisation for peaks

Attaching package: ‘broom’

The following object is masked from ‘package:modelr’:

    bootstrap

Warning message:
no DISPLAY variable so Tk is not available 
[1] "Removing l=0,2,3 first"
# A tibble: 64 x 6
   frequency linewidth height   snr   AIC amplitude
       <dbl>     <dbl>  <dbl> <dbl> <dbl>     <dbl>
 1      21.5   0.0166    3.94  2.86  2.65     0.453
 2      21.9   0.00764   5.12  2.51  6.08     0.351
 3      23.1  NA         7.86 NA     3.54     0.312
 4      25.0  NA         8.55 NA     6.73     0.325
 5      25.8  NA         7.55 NA     2.39     0.305
 6      28.8   0.00764  11.5   5.89 27.6      0.526
 7      29.5  NA         7.36 NA     3.39     0.302
 8      29.7  NA        12.3  NA    21.2      0.390
 9      30.2  NA         7.46 NA     3.30     0.304
10      32.1  NA         8.26 NA     4.52     0.320
# … with 54 more rows
…
